Estructuras/P1/alu.vcd
$date
	Tue Oct 15 15:22:21 2024
$end
$version
	Icarus Verilog
$end
$timescale
	10ps
$end
$scope module alu_tb $end
$var wire 1 ! t_z $end
$var wire 1 " t_s $end
$var wire 1 # t_c $end
$var wire 4 $ t_R [3:0] $end
$var reg 1 % error $end
$var reg 1 & error_R $end
$var reg 1 ' error_c $end
$var reg 1 ( error_s $end
$var reg 1 ) error_z $end
$var reg 4 * t_A [3:0] $end
$var reg 4 + t_B [3:0] $end
$var reg 3 , t_Op [2:0] $end
$var reg 1 - t_cin $end
$var integer 32 . errores [31:0] $end
$scope module mat $end
$var wire 4 / A [3:0] $end
$var wire 4 0 B [3:0] $end
$var wire 3 1 Op [2:0] $end
$var wire 1 - c_in $end
$var wire 1 ! zero $end
$var wire 4 2 sum_out [3:0] $end
$var wire 1 " sign $end
$var wire 4 3 logic_out [3:0] $end
$var wire 1 # carry $end
$var wire 1 4 c_out $end
$var wire 4 5 R [3:0] $end
$var wire 4 6 BMod [3:0] $end
$var wire 4 7 AMod [3:0] $end
$scope module MUX $end
$var wire 1 8 s $end
$var wire 4 9 Out [3:0] $end
$var wire 4 : B [3:0] $end
$var wire 4 ; A [3:0] $end
$upscope $end
$scope module PREP $end
$var wire 4 < A [3:0] $end
$var wire 4 = B [3:0] $end
$var wire 3 > Op [2:0] $end
$var wire 1 ? op2_B $end
$var wire 1 @ op1_A $end
$var wire 1 A cpl $end
$var wire 1 B add1 $end
$var wire 4 C BMod [3:0] $end
$var wire 4 D AMod [3:0] $end
$var wire 4 E AComp [3:0] $end
$scope module COMP_A $end
$var wire 4 F Inp [3:0] $end
$var wire 1 A cpl $end
$var wire 4 G Out [3:0] $end
$upscope $end
$scope module MUX_A $end
$var wire 4 H A [3:0] $end
$var wire 4 I B [3:0] $end
$var wire 1 @ s $end
$var wire 4 J Out [3:0] $end
$upscope $end
$upscope $end
$scope module SUM $end
$var wire 4 K A [3:0] $end
$var wire 4 L B [3:0] $end
$var wire 1 - c_in $end
$var wire 1 4 c_out $end
$var wire 1 M c3 $end
$var wire 1 N c2 $end
$var wire 1 O c1 $end
$var wire 4 P S [3:0] $end
$scope module fa0 $end
$var wire 1 Q a $end
$var wire 1 R b $end
$var wire 1 - c_in $end
$var wire 1 S sum $end
$var wire 1 O c_out $end
$upscope $end
$scope module fa1 $end
$var wire 1 T a $end
$var wire 1 U b $end
$var wire 1 O c_in $end
$var wire 1 V sum $end
$var wire 1 N c_out $end
$upscope $end
$scope module fa2 $end
$var wire 1 W a $end
$var wire 1 X b $end
$var wire 1 N c_in $end
$var wire 1 Y sum $end
$var wire 1 M c_out $end
$upscope $end
$scope module fa3 $end
$var wire 1 Z a $end
$var wire 1 [ b $end
$var wire 1 M c_in $end
$var wire 1 \ sum $end
$var wire 1 4 c_out $end
$upscope $end
$upscope $end
$scope module UL $end
$var wire 4 ] A [3:0] $end
$var wire 4 ^ B [3:0] $end
$var wire 2 _ S [1:0] $end
$var wire 4 ` Out [3:0] $end
$scope begin genblk1[0] $end
$var parameter 2 a i $end
$scope module cl_inst $end
$var wire 2 b S [1:0] $end
$var wire 1 c a $end
$var wire 1 d b $end
$var wire 1 e out_and $end
$var wire 1 f out_not $end
$var wire 1 g out_or $end
$var wire 1 h out_xor $end
$var wire 1 i out $end
$scope module mux1 $end
$var wire 2 j S [1:0] $end
$var wire 1 e a $end
$var wire 1 g b $end
$var wire 1 h c $end
$var wire 1 f d $end
$var reg 1 i out $end
$upscope $end
$upscope $end
$upscope $end
$scope begin genblk1[1] $end
$var parameter 2 k i $end
$scope module cl_inst $end
$var wire 2 l S [1:0] $end
$var wire 1 m a $end
$var wire 1 n b $end
$var wire 1 o out_and $end
$var wire 1 p out_not $end
$var wire 1 q out_or $end
$var wire 1 r out_xor $end
$var wire 1 s out $end
$scope module mux1 $end
$var wire 2 t S [1:0] $end
$var wire 1 o a $end
$var wire 1 q b $end
$var wire 1 r c $end
$var wire 1 p d $end
$var reg 1 s out $end
$upscope $end
$upscope $end
$upscope $end
$scope begin genblk1[2] $end
$var parameter 3 u i $end
$scope module cl_inst $end
$var wire 2 v S [1:0] $end
$var wire 1 w a $end
$var wire 1 x b $end
$var wire 1 y out_and $end
$var wire 1 z out_not $end
$var wire 1 { out_or $end
$var wire 1 | out_xor $end
$var wire 1 } out $end
$scope module mux1 $end
$var wire 2 ~ S [1:0] $end
$var wire 1 y a $end
$var wire 1 { b $end
$var wire 1 | c $end
$var wire 1 z d $end
$var reg 1 } out $end
$upscope $end
$upscope $end
$upscope $end
$scope begin genblk1[3] $end
$var parameter 3 !" i $end
$scope module cl_inst $end
$var wire 2 "" S [1:0] $end
$var wire 1 #" a $end
$var wire 1 $" b $end
$var wire 1 %" out_and $end
$var wire 1 &" out_not $end
$var wire 1 '" out_or $end
$var wire 1 (" out_xor $end
$var wire 1 )" out $end
$scope module mux1 $end
$var wire 2 *" S [1:0] $end
$var wire 1 %" a $end
$var wire 1 '" b $end
$var wire 1 (" c $end
$var wire 1 &" d $end
$var reg 1 )" out $end
$upscope $end
$upscope $end
$upscope $end
$upscope $end
$upscope $end
$scope task check $end
$var reg 5 +" expected_R [4:0] $end
$var reg 1 ," expected_c $end
$var reg 1 -" expected_s $end
$var reg 1 ." expected_z $end
$upscope $end
$upscope $end
$enddefinitions $end
$comment Show the parameter values. $end
$dumpall
b11 !"
b10 u
b1 k
b0 a
$end
#0
$dumpvars
x."
x-"
x,"
bx +"
b0 *"
0)"
0("
0'"
1&"
0%"
0$"
0#"
b0 ""
b0 ~
0}
0|
0{
1z
0y
0x
0w
b0 v
b0 t
0s
0r
0q
1p
0o
0n
0m
b0 l
b0 j
0i
0h
0g
1f
0e
0d
0c
b0 b
b0 `
b0 _
b0 ^
b0 ]
0\
0[
0Z
0Y
0X
0W
0V
0U
0T
0S
0R
0Q
b0 P
0O
0N
0M
b0 L
b0 K
b0 J
b0 I
b0 H
b0 G
b0 F
b0 E
b0 D
b0 C
0B
0A
1@
0?
b0 >
b0 =
b0 <
b0 ;
b0 :
b0 9
08
b0 7
b0 6
b0 5
04
b0 3
b0 2
b0 1
b0 0
b0 /
b0 .
0-
b0 ,
b0 +
b0 *
x)
x(
x'
x&
x%
b0 $
0#
0"
1!
$end
#1
0%
0)
0&
1."
0'
0(
0-"
0,"
b0 +"
#1000
1g
1h
1d
b1 +
b1 0
b1 =
b1 ^
#2000
0g
0h
1q
1r
0d
1n
b10 +
b10 0
b10 =
b10 ^
#3000
1g
1h
1d
b11 +
b11 0
b11 =
b11 ^
#4000
0g
0h
0q
0r
1{
1|
0d
0n
1x
b100 +
b100 0
b100 =
b100 ^
#5000
1g
1h
1d
b101 +
b101 0
b101 =
b101 ^
#6000
0g
0h
1q
1r
0d
1n
b110 +
b110 0
b110 =
b110 ^
#7000
1g
1h
1d
b111 +
b111 0
b111 =
b111 ^
#8000
0g
0h
0q
0r
0{
0|
1'"
1("
0d
0n
0x
1$"
b1000 +
b1000 0
b1000 =
b1000 ^
#9000
1g
1h
1d
b1001 +
b1001 0
b1001 =
b1001 ^
#10000
0g
0h
1q
1r
0d
1n
b1010 +
b1010 0
b1010 =
b1010 ^
#11000
1g
1h
1d
b1011 +
b1011 0
b1011 =
b1011 ^
#12000
0g
0h
0q
0r
1{
1|
0d
0n
1x
b1100 +
b1100 0
b1100 =
b1100 ^
#13000
1g
1h
1d
b1101 +
b1101 0
b1101 =
b1101 ^
#14000
0g
0h
1q
1r
0d
1n
b1110 +
b1110 0
b1110 =
b1110 ^
#15000
1g
1h
1d
b1111 +
b1111 0
b1111 =
b1111 ^
#16000
0!
b1 $
b1 5
b1 9
b1 2
b1 ;
b1 P
1S
1Q
0f
0q
0r
0{
0|
0'"
0("
b1 E
b1 G
b1 H
b1 7
b1 D
b1 J
b1 K
1c
0d
0n
0x
0$"
b1 *
b1 /
b1 <
b1 F
b1 I
b1 ]
b0 +
b0 0
b0 =
b0 ^
#16001
0."
b1 +"
#17000
b1 3
b1 :
b1 `
1i
1e
0h
1d
b1 +
b1 0
b1 =
b1 ^
#18000
b0 3
b0 :
b0 `
0i
0e
1h
1q
1r
0d
1n
b10 +
b10 0
b10 =
b10 ^
#19000
b1 3
b1 :
b1 `
1i
1e
0h
1d
b11 +
b11 0
b11 =
b11 ^
#20000
b0 3
b0 :
b0 `
0i
0e
1h
0q
0r
1{
1|
0d
0n
1x
b100 +
b100 0
b100 =
b100 ^
#21000
b1 3
b1 :
b1 `
1i
1e
0h
1d
b101 +
b101 0
b101 =
b101 ^
#22000
b0 3
b0 :
b0 `
0i
0e
1h
1q
1r
0d
1n
b110 +
b110 0
b110 =
b110 ^
#23000
b1 3
b1 :
b1 `
1i
1e
0h
1d
b111 +
b111 0
b111 =
b111 ^
#24000
b0 3
b0 :
b0 `
0i
0e
1h
0q
0r
0{
0|
1'"
1("
0d
0n
0x
1$"
b1000 +
b1000 0
b1000 =
b1000 ^
#25000
b1 3
b1 :
b1 `
1i
1e
0h
1d
b1001 +
b1001 0
b1001 =
b1001 ^
#26000
b0 3
b0 :
b0 `
0i
0e
1h
1q
1r
0d
1n
b1010 +
b1010 0
b1010 =
b1010 ^
#27000
b1 3
b1 :
b1 `
1i
1e
0h
1d
b1011 +
b1011 0
b1011 =
b1011 ^
#28000
b0 3
b0 :
b0 `
0i
0e
1h
0q
0r
1{
1|
0d
0n
1x
b1100 +
b1100 0
b1100 =
b1100 ^
#29000
b1 3
b1 :
b1 `
1i
1e
0h
1d
b1101 +
b1101 0
b1101 =
b1101 ^
#30000
b0 3
b0 :
b0 `
0i
0e
1h
1q
1r
0d
1n
b1110 +
b1110 0
b1110 =
b1110 ^
#31000
b1 3
b1 :
b1 `
1i
1e
0h
1d
b1111 +
b1111 0
b1111 =
b1111 ^
#32000
b10 $
b10 5
b10 9
0S
b10 2
b10 ;
b10 P
1V
b0 3
b0 :
b0 `
0i
0Q
1T
1f
0p
0e
0g
0{
0|
0'"
0("
b10 E
b10 G
b10 H
b10 7
b10 D
b10 J
b10 K
0c
1m
0d
0n
0x
0$"
b10 *
b10 /
b10 <
b10 F
b10 I
b10 ]
b0 +
b0 0
b0 =
b0 ^
#32001
b10 +"
#33000
1g
1h
1d
b1 +
b1 0
b1 =
b1 ^
#34000
b10 3
b10 :
b10 `
1s
0g
0h
1o
0r
0d
1n
b10 +
b10 0
b10 =
b10 ^
#35000
1g
1h
1d
b11 +
b11 0
b11 =
b11 ^
#36000
b0 3
b0 :
b0 `
0s
0g
0h
0o
1r
1{
1|
0d
0n
1x
b100 +
b100 0
b100 =
b100 ^
#37000
1g
1h
1d
b101 +
b101 0
b101 =
b101 ^
#38000
b10 3
b10 :
b10 `
1s
0g
0h
1o
0r
0d
1n
b110 +
b110 0
b110 =
b110 ^
#39000
1g
1h
1d
b111 +
b111 0
b111 =
b111 ^
#40000
b0 3
b0 :
b0 `
0s
0g
0h
0o
1r
0{
0|
1'"
1("
0d
0n
0x
1$"
b1000 +
b1000 0
b1000 =
b1000 ^
#41000
1g
1h
1d
b1001 +
b1001 0
b1001 =
b1001 ^
#42000
b10 3
b10 :
b10 `
1s
0g
0h
1o
0r
0d
1n
b1010 +
b1010 0
b1010 =
b1010 ^
#43000
1g
1h
1d
b1011 +
b1011 0
b1011 =
b1011 ^
#44000
b0 3
b0 :
b0 `
0s
0g
0h
0o
1r
1{
1|
0d
0n
1x
b1100 +
b1100 0
b1100 =
b1100 ^
#45000
1g
1h
1d
b1101 +
b1101 0
b1101 =
b1101 ^
#46000
b10 3
b10 :
b10 `
1s
0g
0h
1o
0r
0d
1n
b1110 +
b1110 0
b1110 =
b1110 ^
#47000
1g
1h
1d
b1111 +
b1111 0
b1111 =
b1111 ^
#48000
b11 $
b11 5
b11 9
b11 2
b11 ;
b11 P
1S
b0 3
b0 :
b0 `
0s
1Q
0f
0o
1r
0{
0|
0'"
0("
b11 E
b11 G
b11 H
b11 7
b11 D
b11 J
b11 K
1c
0d
0n
0x
0$"
b11 *
b11 /
b11 <
b11 F
b11 I
b11 ]
b0 +
b0 0
b0 =
b0 ^
#48001
b11 +"
#49000
b1 3
b1 :
b1 `
1i
1e
0h
1d
b1 +
b1 0
b1 =
b1 ^
#50000
0i
b10 3
b10 :
b10 `
1s
0e
1h
1o
0r
0d
1n
b10 +
b10 0
b10 =
b10 ^
#51000
b11 3
b11 :
b11 `
1i
1e
0h
1d
b11 +
b11 0
b11 =
b11 ^
#52000
0i
b0 3
b0 :
b0 `
0s
0e
1h
0o
1r
1{
1|
0d
0n
1x
b100 +
b100 0
b100 =
b100 ^
#53000
b1 3
b1 :
b1 `
1i
1e
0h
1d
b101 +
b101 0
b101 =
b101 ^
#54000
0i
b10 3
b10 :
b10 `
1s
0e
1h
1o
0r
0d
1n
b110 +
b110 0
b110 =
b110 ^
#55000
b11 3
b11 :
b11 `
1i
1e
0h
1d
b111 +
b111 0
b111 =
b111 ^
#56000
0i
b0 3
b0 :
b0 `
0s
0e
1h
0o
1r
0{
0|
1'"
1("
0d
0n
0x
1$"
b1000 +
b1000 0
b1000 =
b1000 ^
#57000
b1 3
b1 :
b1 `
1i
1e
0h
1d
b1001 +
b1001 0
b1001 =
b1001 ^
#58000
0i
b10 3
b10 :
b10 `
1s
0e
1h
1o
0r
0d
1n
b1010 +
b1010 0
b1010 =
b1010 ^
#59000
b11 3
b11 :
b11 `
1i
1e
0h
1d
b1011 +
b1011 0
b1011 =
b1011 ^
#60000
0i
b0 3
b0 :
b0 `
0s
0e
1h
0o
1r
1{
1|
0d
0n
1x
b1100 +
b1100 0
b1100 =
b1100 ^
#61000
b1 3
b1 :
b1 `
1i
1e
0h
1d
b1101 +
b1101 0
b1101 =
b1101 ^
#62000
0i
b10 3
b10 :
b10 `
1s
0e
1h
1o
0r
0d
1n
b1110 +
b1110 0
b1110 =
b1110 ^
#63000
b11 3
b11 :
b11 `
1i
1e
0h
1d
b1111 +
b1111 0
b1111 =
b1111 ^
#64000
b100 $
b100 5
b100 9
0S
0V
b100 2
b100 ;
b100 P
1Y
0i
b0 3
b0 :
b0 `
0s
0Q
0T
1W
1f
1p
0z
0e
0g
0o
0q
0'"
0("
b100 E
b100 G
b100 H
b100 7
b100 D
b100 J
b100 K
0c
0m
1w
0d
0n
0x
0$"
b100 *
b100 /
b100 <
b100 F
b100 I
b100 ]
b0 +
b0 0
b0 =
b0 ^
#64001
b100 +"
#65000
1g
1h
1d
b1 +
b1 0
b1 =
b1 ^
#66000
0g
0h
1q
1r
0d
1n
b10 +
b10 0
b10 =
b10 ^
#67000
1g
1h
1d
b11 +
b11 0
b11 =
b11 ^
#68000
b100 3
b100 :
b100 `
1}
0g
0h
0q
0r
1y
0|
0d
0n
1x
b100 +
b100 0
b100 =
b100 ^
#69000
1g
1h
1d
b101 +
b101 0
b101 =
b101 ^
#70000
0g
0h
1q
1r
0d
1n
b110 +
b110 0
b110 =
b110 ^
#71000
1g
1h
1d
b111 +
b111 0
b111 =
b111 ^
#72000
b0 3
b0 :
b0 `
0}
0g
0h
0q
0r
0y
1|
1'"
1("
0d
0n
0x
1$"
b1000 +
b1000 0
b1000 =
b1000 ^
#73000
1g
1h
1d
b1001 +
b1001 0
b1001 =
b1001 ^
#74000
0g
0h
1q
1r
0d
1n
b1010 +
b1010 0
b1010 =
b1010 ^
#75000
1g
1h
1d
b1011 +
b1011 0
b1011 =
b1011 ^
#76000
b100 3
b100 :
b100 `
1}
0g
0h
0q
0r
1y
0|
0d
0n
1x
b1100 +
b1100 0
b1100 =
b1100 ^
#77000
1g
1h
1d
b1101 +
b1101 0
b1101 =
b1101 ^
#78000
0g
0h
1q
1r
0d
1n
b1110 +
b1110 0
b1110 =
b1110 ^
#79000
1g
1h
1d
b1111 +
b1111 0
b1111 =
b1111 ^
#80000
b101 $
b101 5
b101 9
b101 2
b101 ;
b101 P
1S
b0 3
b0 :
b0 `
0}
1Q
0f
0q
0r
0y
1|
0'"
0("
b101 E
b101 G
b101 H
b101 7
b101 D
b101 J
b101 K
1c
0d
0n
0x
0$"
b101 *
b101 /
b101 <
b101 F
b101 I
b101 ]
b0 +
b0 0
b0 =
b0 ^
#80001
b101 +"
#81000
b1 3
b1 :
b1 `
1i
1e
0h
1d
b1 +
b1 0
b1 =
b1 ^
#82000
b0 3
b0 :
b0 `
0i
0e
1h
1q
1r
0d
1n
b10 +
b10 0
b10 =
b10 ^
#83000
b1 3
b1 :
b1 `
1i
1e
0h
1d
b11 +
b11 0
b11 =
b11 ^
#84000
0i
b100 3
b100 :
b100 `
1}
0e
1h
0q
0r
1y
0|
0d
0n
1x
b100 +
b100 0
b100 =
b100 ^
#85000
b101 3
b101 :
b101 `
1i
1e
0h
1d
b101 +
b101 0
b101 =
b101 ^
#86000
b100 3
b100 :
b100 `
0i
0e
1h
1q
1r
0d
1n
b110 +
b110 0
b110 =
b110 ^
#87000
b101 3
b101 :
b101 `
1i
1e
0h
1d
b111 +
b111 0
b111 =
b111 ^
#88000
0i
b0 3
b0 :
b0 `
0}
0e
1h
0q
0r
0y
1|
1'"
1("
0d
0n
0x
1$"
b1000 +
b1000 0
b1000 =
b1000 ^
#89000
b1 3
b1 :
b1 `
1i
1e
0h
1d
b1001 +
b1001 0
b1001 =
b1001 ^
#90000
b0 3
b0 :
b0 `
0i
0e
1h
1q
1r
0d
1n
b1010 +
b1010 0
b1010 =
b1010 ^
#91000
b1 3
b1 :
b1 `
1i
1e
0h
1d
b1011 +
b1011 0
b1011 =
b1011 ^
#92000
0i
b100 3
b100 :
b100 `
1}
0e
1h
0q
0r
1y
0|
0d
0n
1x
b1100 +
b1100 0
b1100 =
b1100 ^
#93000
b101 3
b101 :
b101 `
1i
1e
0h
1d
b1101 +
b1101 0
b1101 =
b1101 ^
#94000
b100 3
b100 :
b100 `
0i
0e
1h
1q
1r
0d
1n
b1110 +
b1110 0
b1110 =
b1110 ^
#95000
b101 3
b101 :
b101 `
1i
1e
0h
1d
b1111 +
b1111 0
b1111 =
b1111 ^
#96000
b110 $
b110 5
b110 9
0S
b110 2
b110 ;
b110 P
1V
0i
b0 3
b0 :
b0 `
0}
0Q
1T
1f
0p
0e
0g
0y
1|
0'"
0("
b110 E
b110 G
b110 H
b110 7
b110 D
b110 J
b110 K
0c
1m
0d
0n
0x
0$"
b110 *
b110 /
b110 <
b110 F
b110 I
b110 ]
b0 +
b0 0
b0 =
b0 ^
#96001
b110 +"
#97000
1g
1h
1d
b1 +
b1 0
b1 =
b1 ^
#98000
b10 3
b10 :
b10 `
1s
0g
0h
1o
0r
0d
1n
b10 +
b10 0
b10 =
b10 ^
#99000
1g
1h
1d
b11 +
b11 0
b11 =
b11 ^
#100000
0s
b100 3
b100 :
b100 `
1}
0g
0h
0o
1r
1y
0|
0d
0n
1x
b100 +
b100 0
b100 =
b100 ^
#101000
1g
1h
1d
b101 +
b101 0
b101 =
b101 ^
#102000
b110 3
b110 :
b110 `
1s
0g
0h
1o
0r
0d
1n
b110 +
b110 0
b110 =
b110 ^
#103000
1g
1h
1d
b111 +
b111 0
b111 =
b111 ^
#104000
0s
b0 3
b0 :
b0 `
0}
0g
0h
0o
1r
0y
1|
1'"
1("
0d
0n
0x
1$"
b1000 +
b1000 0
b1000 =
b1000 ^
#105000
1g
1h
1d
b1001 +
b1001 0
b1001 =
b1001 ^
#106000
b10 3
b10 :
b10 `
1s
0g
0h
1o
0r
0d
1n
b1010 +
b1010 0
b1010 =
b1010 ^
#107000
1g
1h
1d
b1011 +
b1011 0
b1011 =
b1011 ^
#108000
0s
b100 3
b100 :
b100 `
1}
0g
0h
0o
1r
1y
0|
0d
0n
1x
b1100 +
b1100 0
b1100 =
b1100 ^
#109000
1g
1h
1d
b1101 +
b1101 0
b1101 =
b1101 ^
#110000
b110 3
b110 :
b110 `
1s
0g
0h
1o
0r
0d
1n
b1110 +
b1110 0
b1110 =
b1110 ^
#111000
1g
1h
1d
b1111 +
b1111 0
b1111 =
b1111 ^
#112000
b111 $
b111 5
b111 9
b111 2
b111 ;
b111 P
1S
0s
b0 3
b0 :
b0 `
0}
1Q
0f
0o
1r
0y
1|
0'"
0("
b111 E
b111 G
b111 H
b111 7
b111 D
b111 J
b111 K
1c
0d
0n
0x
0$"
b111 *
b111 /
b111 <
b111 F
b111 I
b111 ]
b0 +
b0 0
b0 =
b0 ^
#112001
b111 +"
#113000
b1 3
b1 :
b1 `
1i
1e
0h
1d
b1 +
b1 0
b1 =
b1 ^
#114000
0i
b10 3
b10 :
b10 `
1s
0e
1h
1o
0r
0d
1n
b10 +
b10 0
b10 =
b10 ^
#115000
b11 3
b11 :
b11 `
1i
1e
0h
1d
b11 +
b11 0
b11 =
b11 ^
#116000
0i
0s
b100 3
b100 :
b100 `
1}
0e
1h
0o
1r
1y
0|
0d
0n
1x
b100 +
b100 0
b100 =
b100 ^
#117000
b101 3
b101 :
b101 `
1i
1e
0h
1d
b101 +
b101 0
b101 =
b101 ^
#118000
0i
b110 3
b110 :
b110 `
1s
0e
1h
1o
0r
0d
1n
b110 +
b110 0
b110 =
b110 ^
#119000
b111 3
b111 :
b111 `
1i
1e
0h
1d
b111 +
b111 0
b111 =
b111 ^
#120000
0i
0s
b0 3
b0 :
b0 `
0}
0e
1h
0o
1r
0y
1|
1'"
1("
0d
0n
0x
1$"
b1000 +
b1000 0
b1000 =
b1000 ^
#121000
b1 3
b1 :
b1 `
1i
1e
0h
1d
b1001 +
b1001 0
b1001 =
b1001 ^
#122000
0i
b10 3
b10 :
b10 `
1s
0e
1h
1o
0r
0d
1n
b1010 +
b1010 0
b1010 =
b1010 ^
#123000
b11 3
b11 :
b11 `
1i
1e
0h
1d
b1011 +
b1011 0
b1011 =
b1011 ^
#124000
0i
0s
b100 3
b100 :
b100 `
1}
0e
1h
0o
1r
1y
0|
0d
0n
1x
b1100 +
b1100 0
b1100 =
b1100 ^
#125000
b101 3
b101 :
b101 `
1i
1e
0h
1d
b1101 +
b1101 0
b1101 =
b1101 ^
#126000
0i
b110 3
b110 :
b110 `
1s
0e
1h
1o
0r
0d
1n
b1110 +
b1110 0
b1110 =
b1110 ^
#127000
b111 3
b111 :
b111 `
1i
1e
0h
1d
b1111 +
b1111 0
b1111 =
b1111 ^
#128000
1"
b1000 $
b1000 5
b1000 9
0S
0V
0Y
b1000 2
b1000 ;
b1000 P
1\
0i
0s
b0 3
b0 :
b0 `
0}
0Q
0T
0W
1Z
1f
1p
1z
0&"
0e
0g
0o
0q
0y
0{
b1000 E
b1000 G
b1000 H
b1000 7
b1000 D
b1000 J
b1000 K
0c
0m
0w
1#"
0d
0n
0x
0$"
b1000 *
b1000 /
b1000 <
b1000 F
b1000 I
b1000 ]
b0 +
b0 0
b0 =
b0 ^
#128001
1-"
b1000 +"
#129000
1g
1h
1d
b1 +
b1 0
b1 =
b1 ^
#130000
0g
0h
1q
1r
0d
1n
b10 +
b10 0
b10 =
b10 ^
#131000
1g
1h
1d
b11 +
b11 0
b11 =
b11 ^
#132000
0g
0h
0q
0r
1{
1|
0d
0n
1x
b100 +
b100 0
b100 =
b100 ^
#133000
1g
1h
1d
b101 +
b101 0
b101 =
b101 ^
#134000
0g
0h
1q
1r
0d
1n
b110 +
b110 0
b110 =
b110 ^
#135000
1g
1h
1d
b111 +
b111 0
b111 =
b111 ^
#136000
b1000 3
b1000 :
b1000 `
1)"
0g
0h
0q
0r
0{
0|
1%"
0("
0d
0n
0x
1$"
b1000 +
b1000 0
b1000 =
b1000 ^
#137000
1g
1h
1d
b1001 +
b1001 0
b1001 =
b1001 ^
#138000
0g
0h
1q
1r
0d
1n
b1010 +
b1010 0
b1010 =
b1010 ^
#139000
1g
1h
1d
b1011 +
b1011 0
b1011 =
b1011 ^
#140000
0g
0h
0q
0r
1{
1|
0d
0n
1x
b1100 +
b1100 0
b1100 =
b1100 ^
#141000
1g
1h
1d
b1101 +
b1101 0
b1101 =
b1101 ^
#142000
0g
0h
1q
1r
0d
1n
b1110 +
b1110 0
b1110 =
b1110 ^
#143000
1g
1h
1d
b1111 +
b1111 0
b1111 =
b1111 ^
#144000
b1001 $
b1001 5
b1001 9
b1001 2
b1001 ;
b1001 P
1S
b0 3
b0 :
b0 `
0)"
1Q
0f
0q
0r
0{
0|
0%"
1("
b1001 E
b1001 G
b1001 H
b1001 7
b1001 D
b1001 J
b1001 K
1c
0d
0n
0x
0$"
b1001 *
b1001 /
b1001 <
b1001 F
b1001 I
b1001 ]
b0 +
b0 0
b0 =
b0 ^
#144001
b1001 +"
#145000
b1 3
b1 :
b1 `
1i
1e
0h
1d
b1 +
b1 0
b1 =
b1 ^
#146000
b0 3
b0 :
b0 `
0i
0e
1h
1q
1r
0d
1n
b10 +
b10 0
b10 =
b10 ^
#147000
b1 3
b1 :
b1 `
1i
1e
0h
1d
b11 +
b11 0
b11 =
b11 ^
#148000
b0 3
b0 :
b0 `
0i
0e
1h
0q
0r
1{
1|
0d
0n
1x
b100 +
b100 0
b100 =
b100 ^
#149000
b1 3
b1 :
b1 `
1i
1e
0h
1d
b101 +
b101 0
b101 =
b101 ^
#150000
b0 3
b0 :
b0 `
0i
0e
1h
1q
1r
0d
1n
b110 +
b110 0
b110 =
b110 ^
#151000
b1 3
b1 :
b1 `
1i
1e
0h
1d
b111 +
b111 0
b111 =
b111 ^
#152000
0i
b1000 3
b1000 :
b1000 `
1)"
0e
1h
0q
0r
0{
0|
1%"
0("
0d
0n
0x
1$"
b1000 +
b1000 0
b1000 =
b1000 ^
#153000
b1001 3
b1001 :
b1001 `
1i
1e
0h
1d
b1001 +
b1001 0
b1001 =
b1001 ^
#154000
b1000 3
b1000 :
b1000 `
0i
0e
1h
1q
1r
0d
1n
b1010 +
b1010 0
b1010 =
b1010 ^
#155000
b1001 3
b1001 :
b1001 `
1i
1e
0h
1d
b1011 +
b1011 0
b1011 =
b1011 ^
#156000
b1000 3
b1000 :
b1000 `
0i
0e
1h
0q
0r
1{
1|
0d
0n
1x
b1100 +
b1100 0
b1100 =
b1100 ^
#157000
b1001 3
b1001 :
b1001 `
1i
1e
0h
1d
b1101 +
b1101 0
b1101 =
b1101 ^
#158000
b1000 3
b1000 :
b1000 `
0i
0e
1h
1q
1r
0d
1n
b1110 +
b1110 0
b1110 =
b1110 ^
#159000
b1001 3
b1001 :
b1001 `
1i
1e
0h
1d
b1111 +
b1111 0
b1111 =
b1111 ^
#160000
b1010 $
b1010 5
b1010 9
0S
b1010 2
b1010 ;
b1010 P
1V
0i
b0 3
b0 :
b0 `
0)"
0Q
1T
1f
0p
0e
0g
0{
0|
0%"
1("
b1010 E
b1010 G
b1010 H
b1010 7
b1010 D
b1010 J
b1010 K
0c
1m
0d
0n
0x
0$"
b1010 *
b1010 /
b1010 <
b1010 F
b1010 I
b1010 ]
b0 +
b0 0
b0 =
b0 ^
#160001
b1010 +"
#161000
1g
1h
1d
b1 +
b1 0
b1 =
b1 ^
#162000
b10 3
b10 :
b10 `
1s
0g
0h
1o
0r
0d
1n
b10 +
b10 0
b10 =
b10 ^
#163000
1g
1h
1d
b11 +
b11 0
b11 =
b11 ^
#164000
b0 3
b0 :
b0 `
0s
0g
0h
0o
1r
1{
1|
0d
0n
1x
b100 +
b100 0
b100 =
b100 ^
#165000
1g
1h
1d
b101 +
b101 0
b101 =
b101 ^
#166000
b10 3
b10 :
b10 `
1s
0g
0h
1o
0r
0d
1n
b110 +
b110 0
b110 =
b110 ^
#167000
1g
1h
1d
b111 +
b111 0
b111 =
b111 ^
#168000
0s
b1000 3
b1000 :
b1000 `
1)"
0g
0h
0o
1r
0{
0|
1%"
0("
0d
0n
0x
1$"
b1000 +
b1000 0
b1000 =
b1000 ^
#169000
1g
1h
1d
b1001 +
b1001 0
b1001 =
b1001 ^
#170000
b1010 3
b1010 :
b1010 `
1s
0g
0h
1o
0r
0d
1n
b1010 +
b1010 0
b1010 =
b1010 ^
#171000
1g
1h
1d
b1011 +
b1011 0
b1011 =
b1011 ^
#172000
b1000 3
b1000 :
b1000 `
0s
0g
0h
0o
1r
1{
1|
0d
0n
1x
b1100 +
b1100 0
b1100 =
b1100 ^
#173000
1g
1h
1d
b1101 +
b1101 0
b1101 =
b1101 ^
#174000
b1010 3
b1010 :
b1010 `
1s
0g
0h
1o
0r
0d
1n
b1110 +
b1110 0
b1110 =
b1110 ^
#175000
1g
1h
1d
b1111 +
b1111 0
b1111 =
b1111 ^
#176000
b1011 $
b1011 5
b1011 9
b1011 2
b1011 ;
b1011 P
1S
0s
b0 3
b0 :
b0 `
0)"
1Q
0f
0o
1r
0{
0|
0%"
1("
b1011 E
b1011 G
b1011 H
b1011 7
b1011 D
b1011 J
b1011 K
1c
0d
0n
0x
0$"
b1011 *
b1011 /
b1011 <
b1011 F
b1011 I
b1011 ]
b0 +
b0 0
b0 =
b0 ^
#176001
b1011 +"
#177000
b1 3
b1 :
b1 `
1i
1e
0h
1d
b1 +
b1 0
b1 =
b1 ^
#178000
0i
b10 3
b10 :
b10 `
1s
0e
1h
1o
0r
0d
1n
b10 +
b10 0
b10 =
b10 ^
#179000
b11 3
b11 :
b11 `
1i
1e
0h
1d
b11 +
b11 0
b11 =
b11 ^
#180000
0i
b0 3
b0 :
b0 `
0s
0e
1h
0o
1r
1{
1|
0d
0n
1x
b100 +
b100 0
b100 =
b100 ^
#181000
b1 3
b1 :
b1 `
1i
1e
0h
1d
b101 +
b101 0
b101 =
b101 ^
#182000
0i
b10 3
b10 :
b10 `
1s
0e
1h
1o
0r
0d
1n
b110 +
b110 0
b110 =
b110 ^
#183000
b11 3
b11 :
b11 `
1i
1e
0h
1d
b111 +
b111 0
b111 =
b111 ^
